Workplan - Tools for data mapping (R tools)
…
taxon %>% distinct(raw_species)

## # A tibble: 73 x 1
##    raw_species             
##    <chr>                   
##  1 Amphibalanus amphitrite 
##  2 Amphibalanus improvisus 
##  3 Amphibalanus reticulatus
##  4 Astacus leptodactylus   
##  5 Atyaephyra desmaresti   
##  6 Austrominius modestus   
##  7 Branchiodrilus hortensis
##  8 Branchiura sowerbyi     
##  9 Bratislavia dadayi      
## 10 Callinectes sapidus     
## # ... with 63 more rows

# Although most raw_species are in fact species, Dreissena rostriformis bugensis is not a species but a subspecies. We need to make this distinction in the mapping process:
taxon %<>% mutate(taxonRank = case_when(
    raw_species == "Dreissena rostriformis bugensis" ~ "subspecies",
    raw_species != "Dreissena rostriformis bugensis" ~ "species")
  )
# compare our newly mapped data with the original data:
  taxon %>% select(raw_species, taxonRank) %>%
  group_by_all() %>% 
  summarize()

## # A tibble: 73 x 2
## # Groups:   raw_species [73]
##    raw_species              taxonRank
##    <chr>                    <chr>    
##  1 Amphibalanus amphitrite  species  
##  2 Amphibalanus improvisus  species  
##  3 Amphibalanus reticulatus species  
##  4 Astacus leptodactylus    species  
##  5 Atyaephyra desmaresti    species  
##  6 Austrominius modestus    species  
##  7 Branchiodrilus hortensis species  
##  8 Branchiura sowerbyi      species  
##  9 Bratislavia dadayi       species  
## 10 Callinectes sapidus      species  
## # ... with 63 more rows
…
